<?xml version="1.0" encoding="utf-8"?>
<!-- Generator: Adobe Illustrator 18.0.0, SVG Export Plug-In . SVG Version: 6.00 Build 0)  -->
<!DOCTYPE svg PUBLIC "-//W3C//DTD SVG 1.1//EN" "http://www.w3.org/Graphics/SVG/1.1/DTD/svg11.dtd">
<svg version="1.1" id="Layer_1" xmlns="http://www.w3.org/2000/svg" xmlns:xlink="http://www.w3.org/1999/xlink" x="0px" y="0px"
	 viewBox="0 0 9.2 5.3" enable-background="new 0 0 9.2 5.3" xml:space="preserve">
<g>
	<g>
		<g>
      <polyline fill="none" stroke="#FFFFFF" stroke-miterlimit="10" points="0.4,4.9 4.6,0.7 8.8,4.9       "/>
		</g>
	</g>
</g>
</svg>
