<svg version="1.1" xmlns="http://www.w3.org/2000/svg" xmlns:xlink="http://www.w3.org/1999/xlink" x="0px" y="0px"
	 viewBox="0 0 62.3 67.8" style="enable-background:new 0 0 62.3 67.8;" xml:space="preserve">
<g id="clock_1">
	<g>
		<circle class="st9" cx="31.2" cy="36.7" r="29.8"/>
		<g class="rotate_1">
			<circle class="st6" cx="31.2" cy="36.7" r="3.8"/>
			<line class="st9" x1="31.2" y1="37.9" x2="31.2" y2="16.6"/>
		</g>
		<line class="st9" x1="31.2" y1="7.2" x2="31.2" y2="1.4"/>
		<line class="st9" x1="51.6" y1="16.3" x2="56.5" y2="11.4"/>
		<line class="st9" x1="27.1" y1="1.4" x2="35.3" y2="1.4"/>
		<line class="st9" x1="54.4" y1="9.3" x2="58.7" y2="13.6"/>
	</g>
</g>

</svg>
						</div>
						<div class="clock-container">
<svg version="1.1" xmlns="http://www.w3.org/2000/svg" xmlns:xlink="http://www.w3.org/1999/xlink" x="0px" y="0px"
	 viewBox="0 0 62.3 67.9" style="enable-background:new 0 0 62.3 67.9;" xml:space="preserve">


<g id="clock_2">
	<g>
		<circle class="st9" cx="31.2" cy="36.7" r="29.8"/>
		<g class="rotate_2">	
			<circle class="st6" cx="31.2" cy="36.7" r="3.8"/>
			<line class="st9" x1="31.2" y1="56.8" x2="31.2" y2="35.4"/>
		</g>
		<line class="st9" x1="31.2" y1="7.2" x2="31.2" y2="1.4"/>
		<line class="st9" x1="51.6" y1="16.3" x2="56.5" y2="11.4"/>
		<line class="st9" x1="27.1" y1="1.4" x2="35.3" y2="1.4"/>
		<line class="st9" x1="54.4" y1="9.3" x2="58.7" y2="13.6"/>
	</g>
</g>

</svg>

						</div>
						<div class="clock-container">
<svg version="1.1" xmlns="http://www.w3.org/2000/svg" xmlns:xlink="http://www.w3.org/1999/xlink" x="0px" y="0px"
	 viewBox="0 0 62.3 67.8" style="enable-background:new 0 0 62.3 67.8;" xml:space="preserve">
<g id="clock_1">
	<g>
		<circle class="st9" cx="31.2" cy="36.7" r="29.8"/>
		<g class="rotate_1">
			<circle class="st6" cx="31.2" cy="36.7" r="3.8"/>
			<line class="st9" x1="31.2" y1="37.9" x2="31.2" y2="16.6"/>
		</g>
		<line class="st9" x1="31.2" y1="7.2" x2="31.2" y2="1.4"/>
		<line class="st9" x1="51.6" y1="16.3" x2="56.5" y2="11.4"/>
		<line class="st9" x1="27.1" y1="1.4" x2="35.3" y2="1.4"/>
		<line class="st9" x1="54.4" y1="9.3" x2="58.7" y2="13.6"/>
	</g>
</g>

</svg>